Data on model metalearners experiments — metalearners • metalearners
…
    Examples

str(metalearners)
#> tibble [217 × 8] (S3: tbl_df/tbl/data.frame)
#>  $ task         : Factor w/ 8 levels "barley","caret",..: 1 1 1 1 1 1 1 1 1 1 ...
#>  $ meta_learner : Factor w/ 11 levels "minimal_glmnet",..: 1 1 2 2 3 3 4 4 5 5 ...
#>  $ recipe       : Factor w/ 4 levels "C+S, PCA, C+S",..: 3 3 3 3 3 3 2 2 2 2 ...
#>  $ specification: Factor w/ 6 levels "Bagged Tree (rpart)",..: 4 4 2 2 3 3 1 1 5 5 ...
#>  $ elapsed      : num [1:217] 0.628 0.628 194.429 194.429 263.355 ...
#>  $ metric       : chr [1:217] "rsq" "rmse" "rsq" "rmse" ...
#>  $ estimate     : num [1:217] 0.977 2.288 0.966 3.134 0.973 ...
#>  $ estimator    : chr [1:217] "standard" "standard" "standard" "standard" ...

metalearners
#> # A tibble: 217 × 8
#>    task   meta_learner   recipe  specification elapsed metric estimate estimator
#>    <fct>  <fct>          <fct>   <fct>           <dbl> <chr>     <dbl> <chr>    
#>  1 barley minimal_glmnet Minimal GLM (glmnet)    0.628 rsq       0.977 standard 
#>  2 barley minimal_glmnet Minimal GLM (glmnet)    0.628 rmse      2.29  standard 
#>  3 barley minimal_lgb    Minimal Boosted Tree… 194.    rsq       0.966 standard 
#>  4 barley minimal_lgb    Minimal Boosted Tree… 194.    rmse      3.13  standard 
#>  5 barley minimal_xgb    Minimal Boosted Tree… 263.    rsq       0.973 standard 
#>  6 barley minimal_xgb    Minimal Boosted Tree… 263.    rmse      2.53  standard 
#>  7 barley normalize_bt   Center… Bagged Tree …  25.7   rsq       0.970 standard 
#>  8 barley normalize_bt   Center… Bagged Tree …  25.7   rmse      2.63  standard 
#>  9 barley normalize_nn   Center… Neural Netwo… 407.    rsq       0.859 standard 
#> 10 barley normalize_nn   Center… Neural Netwo… 407.    rmse      5.75  standard 
#> # ℹ 207 more rows
…
