Generalizing the meta-learner in stacks • metalearners
…
The exact definitions of each the above recipes and model
specifications can be found in the experiment
repository.

The resulting dataset containing experiment metadata, performance
metrics, and speed benchmarks is available in the metalearners data
package:

library(metalearners)

metalearners

## # A tibble: 217 × 8
##    task   meta_learner   recipe  specification elapsed metric estimate estimator
##    <fct>  <fct>          <fct>   <fct>           <dbl> <chr>     <dbl> <chr>    
##  1 barley minimal_glmnet Minimal GLM (glmnet)    0.628 rsq       0.977 standard 
##  2 barley minimal_glmnet Minimal GLM (glmnet)    0.628 rmse      2.29  standard 
##  3 barley minimal_lgb    Minimal Boosted Tree… 194.    rsq       0.966 standard 
##  4 barley minimal_lgb    Minimal Boosted Tree… 194.    rmse      3.13  standard 
##  5 barley minimal_xgb    Minimal Boosted Tree… 263.    rsq       0.973 standard 
##  6 barley minimal_xgb    Minimal Boosted Tree… 263.    rmse      2.53  standard 
##  7 barley normalize_bt   Center… Bagged Tree …  25.7   rsq       0.970 standard 
##  8 barley normalize_bt   Center… Bagged Tree …  25.7   rmse      2.63  standard 
##  9 barley normalize_nn   Center… Neural Netwo… 407.    rsq       0.859 standard 
## 10 barley normalize_nn   Center… Neural Netwo… 407.    rmse      5.75  standard 
## # ℹ 207 more rows
…
Elapsed time

While there are multiple performance metrics for each unique
combination of task and meta-learner, there is only one fit time. This
makes

metalearners_times <- 
  metalearners %>% 
  slice_head(n = 1, by = c(task, recipe, specification))

metalearners_times

## # A tibble: 87 × 8
##    task   meta_learner   recipe  specification elapsed metric estimate estimator
##    <fct>  <fct>          <fct>   <fct>           <dbl> <chr>     <dbl> <chr>    
##  1 barley minimal_glmnet Minimal GLM (glmnet)    0.628 rsq       0.977 standard 
##  2 barley minimal_lgb    Minimal Boosted Tree… 194.    rsq       0.966 standard 
##  3 barley minimal_xgb    Minimal Boosted Tree… 263.    rsq       0.973 standard 
##  4 barley normalize_bt   Center… Bagged Tree …  25.7   rsq       0.970 standard 
##  5 barley normalize_nn   Center… Neural Netwo… 407.    rsq       0.859 standard 
##  6 barley normalize_svm  Center… Support Vect…   6.14  rsq      NA     standard 
##  7 barley pca_bt         Princi… Bagged Tree …  20.4   rsq       0.970 standard 
##  8 barley pca_nn         Princi… Neural Netwo… 199.    rsq       0.859 standard 
##  9 barley pca_svm        Princi… Support Vect…   6.05  rsq      NA     standard 
## 10 barley renormalize_nn C+S, P… Neural Netwo… 210.    rsq       0.865 standard 
## # ℹ 77 more rows
…
